departements-noms;departements-numeros
Ain;01
Allier;03
Alpes-de-Haute-Provence;04
Ardèche;07
Ardennes;08
Ariège;09
Aube;10
Aveyron;12
Bas-Rhin;67
Bouches-du-Rhône;13
Cantal;15
Charente;16
Cher;18
Corrèze;19
Côte-d'Or;21
Côtes-d'Armor;22
Creuse;23
Deux-Sèvres;79
Dordogne;24
Doubs;25
Drôme;26
Essonne;91
Eure-et-Loir;28
Finistère;29
Gard;30
Gers;32
Hauts-de-Seine;92
Haute-Garonne;31
Haute-Loire;43
Haute-Marne;52
Haut-Rhin;68
Haute-Saône;70
Hautes-Alpes;05
Hautes-Pyrénées;65
Haute-Savoie;74
Ille-et-Vilaine;35
Indre;36
Isère;38
Jura;39
Loir-et-Cher;41
Loire-Atlantique;44
Loire;42
Lot;46
Lot-et-Garonne;47
Lozère;48
Maine-et-Loire;49
Marne;51
Mayenne;53
Meurthe-et-Moselle;54
Meuse;55
Morbihan;56
Moselle;57
Nièvre;58
Paris;75
Puy-de-Dôme;63
Pyrénées-Orientales;66
Rhône;69
Saône-et-Loire;71
Sarthe;72
Savoie;73
Seine-et-Marne;77
Seine-Saint-Denis;93
Tarn-et-Garonne;82
Territoire de Belfort;90
Val-de-Marne;94
Val-d'Oise;95
Var;83
Vaucluse;84
Vendée;85
Vosges;88
Yonne;89
