code_insee;referent
01004;Oui
01005;Oui
01006;Oui
01007;Oui
01008;Oui
01015;Oui
01016;Oui
01017;Oui
01022;Oui
01023;Oui
01024;Oui
01025;Oui
01026;Oui
01027;Oui
01028;Oui
01031;Oui
01032;Oui
01033;Oui
01036;Oui
01037;Oui
01039;Oui
01043;Oui
01046;Oui
01047;Oui
01049;Oui
01050;Oui
01051;Oui
01053;Oui
01054;Oui
01057;Oui
01060;Oui
01061;Oui
01063;Oui
01065;Oui
01071;Oui
01072;Oui
01074;Oui
01075;Oui
01077;Oui
01079;Oui
01082;Oui
01084;Oui
01089;Oui
01090;Oui
01092;Oui
01095;Oui
01096;Oui
01099;Oui
01105;Oui
01106;Oui
01111;Oui
01114;Oui
01115;Oui
01116;Oui
01117;Oui
01118;Oui
01121;Oui
01123;Oui
01125;Oui
01127;Oui
01129;Oui
01134;Oui
01135;Oui
01139;Oui
01140;Oui
01141;Oui
01142;Oui
01145;Oui
01147;Oui
01149;Oui
01151;Oui
01153;Oui
01155;Oui
01156;Oui
01157;Oui
01159;Oui
01162;Oui
01165;Oui
01166;Oui
01167;Oui
01169;Oui
01170;Oui
01171;Oui
01173;Oui
01175;Oui
01179;Oui
01180;Oui
01181;Oui
01185;Oui
01187;Oui
01192;Oui
01196;Oui
01197;Oui
01199;Oui
01202;Oui
01204;Oui
01033;Oui
01209;Oui
01211;Oui
01212;Oui
01214;Oui
01216;Oui
01224;Oui
01225;Oui
01229;Oui
01230;Oui
01233;Oui
01234;Oui
01235;Oui
01236;Oui
01237;Oui
01238;Oui
01239;Oui
01240;Oui
01241;Oui
01242;Oui
01243;Oui
01244;Oui
01246;Oui
01248;Oui
01249;Oui
01255;Oui
01258;Oui
01262;Oui
01264;Oui
01266;Oui
01267;Oui
01269;Oui
01275;Oui
01276;Oui
01280;Oui
01283;Oui
01284;Oui
01285;Oui
01288;Oui
01290;Oui
01294;Oui
01295;Oui
01296;Oui
01297;Oui
01298;Oui
01303;Oui
01304;Oui
01307;Oui
01310;Oui
01311;Oui
01313;Oui
01314;Oui
01318;Oui
01322;Oui
01323;Oui
01328;Oui
01333;Oui
01334;Oui
01336;Oui
01337;Oui
01339;Oui
01342;Oui
01343;Oui
01344;Oui
01345;Oui
01346;Oui
01347;Oui
01348;Oui
01349;Oui
01350;Oui
01351;Oui
01352;Oui
01353;Oui
01354;Oui
01355;Oui
01356;Oui
01359;Oui
01360;Oui
01361;Oui
01363;Oui
01367;Oui
01368;Oui
01369;Oui
01371;Oui
01372;Oui
01373;Oui
01374;Oui
01375;Oui
01376;Oui
01382;Oui
01385;Oui
01386;Oui
01387;Oui
01388;Oui
01389;Oui
01390;Oui
01391;Oui
01392;Oui
01398;Oui
01401;Oui
01402;Oui
01403;Oui
01404;Oui
01405;Oui
01406;Oui
01407;Oui
01410;Oui
01412;Oui
01415;Oui
01418;Oui
01419;Oui
01420;Oui
01421;Oui
01423;Oui
01424;Oui
01426;Oui
01430;Oui
01431;Oui
01433;Oui
01437;Oui
01439;Oui
01443;Oui
01444;Oui
01445;Oui
01446;Oui
01449;Oui
01450;Oui
01451;Oui
01453;Oui
01454;Oui
03001;Oui
03002;Oui
03003;Oui
03005;Oui
03007;Oui
03009;Oui
03010;Oui
03011;Oui
03013;Oui
03014;Oui
03015;Oui
03016;Oui
03017;Oui
03018;Oui
03020;Oui
03022;Oui
03023;Oui
03024;Oui
03025;Oui
03026;Oui
03027;Oui
03028;Oui
03029;Oui
03030;Oui
03031;Oui
03032;Oui
03033;Oui
03034;Oui
03037;Oui
03038;Oui
03039;Oui
03040;Oui
03041;Oui
03042;Oui
03043;Oui
03046;Oui
03047;Oui
03048;Oui
03050;Oui
03051;Oui
03052;Oui
03053;Oui
03054;Oui
03055;Oui
03057;Oui
03058;Oui
03059;Oui
03060;Oui
03061;Oui
03062;Oui
03063;Oui
03065;Oui
03066;Oui
03067;Oui
03069;Oui
03070;Oui
03072;Oui
03073;Oui
03074;Oui
03075;Oui
03076;Oui
03077;Oui
03078;Oui
03079;Oui
03082;Oui
03083;Oui
03085;Oui
03086;Oui
03087;Oui
03088;Oui
03090;Oui
03092;Oui
03093;Oui
03094;Oui
03095;Oui
03097;Oui
03099;Oui
03100;Oui
03101;Oui
03102;Oui
03103;Oui
03104;Oui
03105;Oui
03106;Oui
03108;Oui
03110;Oui
03113;Oui
03114;Oui
03117;Oui
03118;Oui
03119;Oui
03121;Oui
03124;Oui
03126;Oui
03127;Oui
03128;Oui
03132;Oui
03134;Oui
03135;Oui
03137;Oui
03138;Oui
03139;Oui
03143;Oui
03144;Oui
03145;Oui
03148;Oui
03149;Oui
03150;Oui
03152;Oui
03155;Oui
03156;Oui
03157;Oui
03158;Oui
03159;Oui
03160;Oui
03162;Oui
03163;Oui
03165;Oui
03166;Oui
03167;Oui
03168;Oui
03169;Oui
03170;Oui
03171;Oui
03172;Oui
03174;Oui
03175;Oui
03176;Oui
03180;Oui
03181;Oui
03182;Oui
03183;Oui
03184;Oui
03185;Oui
03186;Oui
03187;Oui
03190;Oui
03193;Oui
03194;Oui
03196;Oui
03197;Oui
03198;Oui
03200;Oui
03201;Oui
03202;Oui
03203;Oui
03205;Oui
03206;Oui
03209;Oui
03210;Oui
03211;Oui
03212;Oui
03213;Oui
03214;Oui
03215;Oui
03216;Oui
03217;Oui
03218;Oui
03220;Oui
03221;Oui
03223;Oui
03224;Oui
03226;Oui
03227;Oui
03230;Oui
03231;Oui
03233;Oui
03234;Oui
03235;Oui
03236;Oui
03238;Oui
03240;Oui
03241;Oui
03242;Oui
03243;Oui
03244;Oui
03249;Oui
03250;Oui
03252;Oui
03253;Oui
03254;Oui
03255;Oui
03256;Oui
03257;Oui
03258;Oui
03259;Oui
03261;Oui
03262;Oui
03264;Oui
03265;Oui
03267;Oui
03270;Oui
03271;Oui
03273;Oui
03274;Oui
03275;Oui
03278;Oui
03279;Oui
03280;Oui
03283;Oui
03285;Oui
03286;Oui
03287;Oui
03289;Oui
03290;Oui
03293;Oui
03295;Oui
03296;Oui
03297;Oui
03298;Oui
03301;Oui
03302;Oui
03303;Oui
03304;Oui
03305;Oui
03306;Oui
03309;Oui
03310;Oui
03311;Oui
03314;Oui
03315;Oui
03316;Oui
03319;Oui
03320;Oui
03321;Oui
05001;Oui
05004;Oui
05006;Oui
05007;Oui
05008;Oui
05009;Oui
05012;Oui
05013;Oui
05014;Oui
05018;Oui
05021;Oui
05022;Oui
05025;Oui
05028;Oui
05031;Oui
05032;Oui
05038;Oui
05039;Oui
05045;Oui
05046;Oui
05049;Oui
05051;Oui
05052;Oui
05053;Oui
05054;Oui
05055;Oui
05056;Oui
05057;Oui
05058;Oui
05059;Oui
05060;Oui
05061;Oui
05062;Oui
05064;Oui
05065;Oui
05070;Oui
05071;Oui
05073;Oui
05075;Oui
05077;Oui
05078;Oui
05079;Oui
05081;Oui
05085;Oui
05092;Oui
05093;Oui
05095;Oui
05096;Oui
05097;Oui
05098;Oui
05100;Oui
05101;Oui
05102;Oui
05104;Oui
05106;Oui
05107;Oui
05108;Oui
05109;Oui
05110;Oui
05111;Oui
05112;Oui
05114;Oui
05116;Oui
05117;Oui
05118;Oui
05119;Oui
05121;Oui
05123;Oui
05124;Oui
05127;Oui
05128;Oui
05129;Oui
05130;Oui
05132;Oui
05133;Oui
05134;Oui
05135;Oui
05136;Oui
05139;Oui
05140;Oui
05144;Oui
05145;Oui
05146;Oui
05151;Oui
05152;Oui
05153;Oui
05154;Oui
05155;Oui
05156;Oui
05157;Oui
05158;Oui
05159;Oui
05161;Oui
05163;Oui
05164;Oui
05170;Oui
05171;Oui
05172;Oui
05173;Oui
05174;Oui
05176;Oui
05179;Oui
05180;Oui
05181;Oui
05182;Oui
06004;Oui
07003;Oui
07004;Oui
07005;Oui
07006;Oui
07007;Oui
07009;Oui
07010;Oui
07013;Oui
07015;Oui
07018;Oui
07020;Oui
07022;Oui
07027;Oui
07030;Oui
07031;Oui
07032;Oui
07036;Oui
07039;Oui
07040;Oui
07042;Oui
07045;Oui
07051;Oui
07052;Oui
07053;Oui
07055;Oui
07056;Oui
07060;Oui
07062;Oui
07066;Oui
07067;Oui
07070;Oui
07072;Oui
07078;Oui
07080;Oui
07081;Oui
07084;Oui
07085;Oui
07088;Oui
07090;Oui
07091;Oui
07094;Oui
07096;Oui
07097;Oui
07099;Oui
07100;Oui
07102;Oui
07112;Oui
07122;Oui
07131;Oui
07132;Oui
07133;Oui
07145;Oui
07152;Oui
07153;Oui
07157;Oui
07165;Oui
07169;Oui
07170;Oui
07173;Oui
07177;Oui
07181;Oui
07185;Oui
07186;Oui
07188;Oui
07191;Oui
07197;Oui
07201;Oui
07204;Oui
07206;Oui
07211;Oui
07215;Oui
07217;Oui
07219;Oui
07221;Oui
07227;Oui
07229;Oui
07231;Oui
07233;Oui
07236;Oui
07242;Oui
07247;Oui
07253;Oui
07254;Oui
07257;Oui
07259;Oui
07261;Oui
07265;Oui
07273;Oui
07276;Oui
07279;Oui
07281;Oui
07283;Oui
07284;Oui
07288;Oui
07291;Oui
07293;Oui
07295;Oui
07297;Oui
07300;Oui
07301;Oui
07302;Oui
07305;Oui
07308;Oui
07310;Oui
07311;Oui
07316;Oui
07318;Oui
07322;Oui
07323;Oui
07324;Oui
07325;Oui
07337;Oui
07338;Oui
07343;Oui
07344;Oui
07345;Oui
07348;Oui
07349;Oui
09003;Oui
09009;Oui
09011;Oui
09014;Oui
09018;Oui
09038;Oui
09041;Oui
09042;Oui
09048;Oui
09050;Oui
09052;Oui
09060;Oui
09062;Oui
09066;Oui
09074;Oui
09076;Oui
09077;Oui
09081;Oui
09082;Oui
09084;Oui
09089;Oui
09101;Oui
09104;Oui
09106;Oui
09108;Oui
09114;Oui
09116;Oui
09119;Oui
09120;Oui
09122;Oui
09127;Oui
09132;Oui
09133;Oui
09134;Oui
09138;Oui
09142;Oui
09145;Oui
09147;Oui
09148;Oui
09153;Oui
09161;Oui
09166;Oui
09167;Oui
09169;Oui
09174;Oui
09175;Oui
09176;Oui
09180;Oui
09184;Oui
09187;Oui
09194;Oui
09196;Oui
09199;Oui
09207;Oui
09209;Oui
09216;Oui
09217;Oui
09218;Oui
09221;Oui
09228;Oui
09235;Oui
09238;Oui
09244;Oui
09245;Oui
09246;Oui
09249;Oui
09254;Oui
09255;Oui
09260;Oui
09263;Oui
09265;Oui
09270;Oui
09274;Oui
09276;Oui
09291;Oui
09300;Oui
09301;Oui
09307;Oui
09309;Oui
09314;Oui
09322;Oui
09324;Oui
09325;Oui
09330;Oui
09332;Oui
09334;Oui
09338;Oui
09339;Oui
09340;Oui
09341;Oui
10193;Oui
10293;Oui
11001;Oui
11002;Oui
11004;Oui
11010;Oui
11011;Oui
11017;Oui
11018;Oui
11025;Oui
11026;Oui
11027;Oui
11030;Oui
11040;Oui
11068;Oui
11076;Oui
11081;Oui
11083;Oui
11084;Oui
11102;Oui
11119;Oui
11124;Oui
11126;Oui
11133;Oui
11136;Oui
11137;Oui
11142;Oui
11163;Oui
11192;Oui
11201;Oui
11202;Oui
11219;Oui
11232;Oui
11233;Oui
11234;Oui
11236;Oui
11243;Oui
11254;Oui
11262;Oui
11266;Oui
11272;Oui
11283;Oui
11285;Oui
11292;Oui
11295;Oui
11306;Oui
11318;Oui
11330;Oui
11336;Oui
11337;Oui
11356;Oui
11358;Oui
11370;Oui
11387;Oui
11401;Oui
11404;Oui
11405;Oui
11416;Oui
11426;Oui
11427;Oui
11429;Oui
11437;Oui
12003;Oui
12013;Oui
12015;Oui
12016;Oui
12017;Oui
12018;Oui
12019;Oui
12022;Oui
12023;Oui
12024;Oui
12026;Oui
12028;Oui
12029;Oui
12032;Oui
12033;Oui
12036;Oui
12037;Oui
12039;Oui
12043;Oui
12044;Oui
12045;Oui
12048;Oui
12052;Oui
12053;Oui
12054;Oui
12057;Oui
12059;Oui
12063;Oui
12064;Oui
12067;Oui
12070;Oui
12072;Oui
12073;Oui
12075;Oui
12078;Oui
12079;Oui
12080;Oui
12082;Oui
12083;Oui
12084;Oui
12085;Oui
12088;Oui
12089;Oui
12091;Oui
12092;Oui
12093;Oui
12094;Oui
12095;Oui
12096;Oui
12097;Oui
12100;Oui
12101;Oui
12105;Oui
12109;Oui
12110;Oui
12111;Oui
12113;Oui
12116;Oui
12118;Oui
12119;Oui
12120;Oui
12121;Oui
12122;Oui
12124;Oui
12125;Oui
12127;Oui
12128;Oui
12131;Oui
12133;Oui
12134;Oui
12136;Oui
12146;Oui
12147;Oui
12151;Oui
12152;Oui
12153;Oui
12154;Oui
12155;Oui
12156;Oui
12157;Oui
12159;Oui
12160;Oui
12161;Oui
12164;Oui
12166;Oui
12167;Oui
12169;Oui
12174;Oui
12176;Oui
12177;Oui
12180;Oui
12182;Oui
12184;Oui
12186;Oui
12189;Oui
12190;Oui
12191;Oui
12192;Oui
12193;Oui
12197;Oui
12200;Oui
12201;Oui
12202;Oui
12204;Oui
12205;Oui
12206;Oui
12208;Oui
12211;Oui
12213;Oui
12214;Oui
12215;Oui
12217;Oui
12220;Oui
12222;Oui
12224;Oui
12225;Oui
12226;Oui
12227;Oui
12230;Oui
12232;Oui
12234;Oui
12235;Oui
12236;Oui
12238;Oui
12239;Oui
12242;Oui
12243;Oui
12244;Oui
12246;Oui
12247;Oui
12248;Oui
12249;Oui
12250;Oui
12251;Oui
12252;Oui
12253;Oui
12254;Oui
12259;Oui
12261;Oui
12263;Oui
12264;Oui
12267;Oui
12268;Oui
12273;Oui
12275;Oui
12280;Oui
12284;Oui
12286;Oui
12287;Oui
12288;Oui
12290;Oui
12297;Oui
12299;Oui
12300;Oui
12301;Oui
12303;Oui
12305;Oui
12307;Oui
13002;Oui
13003;Oui
13005;Oui
13008;Oui
13009;Oui
13010;Oui
13012;Oui
13013;Oui
13014;Oui
13015;Oui
13017;Oui
13018;Oui
13019;Oui
13020;Oui
13021;Oui
13022;Oui
13023;Oui
13024;Oui
13025;Oui
13026;Oui
13027;Oui
13029;Oui
13030;Oui
13032;Oui
13033;Oui
13035;Oui
13036;Oui
13038;Oui
13039;Oui
13041;Oui
13045;Oui
13047;Oui
13048;Oui
13049;Oui
13050;Oui
13051;Oui
13052;Oui
13053;Oui
13054;Oui
13055;Oui
13059;Oui
13060;Oui
13061;Oui
13062;Oui
13063;Oui
13065;Oui
13066;Oui
13070;Oui
13071;Oui
13075;Oui
13076;Oui
13077;Oui
13079;Oui
13081;Oui
13082;Oui
13083;Oui
13084;Oui
13086;Oui
13088;Oui
13090;Oui
13092;Oui
13094;Oui
13096;Oui
13097;Oui
13098;Oui
13099;Oui
13100;Oui
13103;Oui
13104;Oui
13106;Oui
13107;Oui
13108;Oui
13109;Oui
13110;Oui
13111;Oui
13112;Oui
13113;Oui
13114;Oui
13117;Oui
13118;Oui
15001;Oui
15004;Oui
15015;Oui
15016;Oui
15025;Oui
15036;Oui
15041;Oui
15045;Oui
15048;Oui
15049;Oui
15050;Oui
15055;Oui
15060;Oui
15072;Oui
15076;Oui
15084;Oui
15089;Oui
15092;Oui
15100;Oui
15101;Oui
15104;Oui
15106;Oui
15118;Oui
15123;Oui
15126;Oui
15127;Oui
15128;Oui
15132;Oui
15134;Oui
15137;Oui
15138;Oui
15139;Oui
15141;Oui
15152;Oui
15153;Oui
15161;Oui
15162;Oui
15164;Oui
15175;Oui
15176;Oui
15179;Oui
15183;Oui
15185;Oui
15188;Oui
15192;Oui
15208;Oui
15215;Oui
15216;Oui
15218;Oui
15238;Oui
15243;Oui
15244;Oui
15250;Oui
15259;Oui
15265;Oui
15267;Oui
16031;Oui
16056;Oui
16089;Oui
16102;Oui
16150;Oui
16184;Oui
16242;Oui
16271;Oui
16282;Oui
16291;Oui
16295;Oui
16340;Oui
16353;Oui
16359;Oui
16409;Oui
16413;Oui
18002;Oui
18003;Oui
18005;Oui
18009;Oui
18010;Oui
18018;Oui
18023;Oui
18024;Oui
18026;Oui
18033;Oui
18034;Oui
18038;Oui
18042;Oui
18043;Oui
18046;Oui
18050;Oui
18052;Oui
18055;Oui
18057;Oui
18058;Oui
18059;Oui
18063;Oui
18065;Oui
18071;Oui
18076;Oui
18079;Oui
18086;Oui
18087;Oui
18093;Oui
18103;Oui
18107;Oui
18110;Oui
18122;Oui
18130;Oui
18135;Oui
18137;Oui
18138;Oui
18140;Oui
18142;Oui
18144;Oui
18145;Oui
18151;Oui
18152;Oui
18153;Oui
18171;Oui
18172;Oui
18176;Oui
18178;Oui
18183;Oui
18187;Oui
18191;Oui
18192;Oui
18193;Oui
18197;Oui
18199;Oui
18204;Oui
18207;Oui
18209;Oui
18212;Oui
18221;Oui
18228;Oui
18231;Oui
18234;Oui
18245;Oui
18261;Oui
18270;Oui
18273;Oui
18274;Oui
18278;Oui
18285;Oui
18287;Oui
18289;Oui
21010;Oui
21035;Oui
21037;Oui
21038;Oui
21103;Oui
21173;Oui
21191;Oui
21241;Oui
21246;Oui
21289;Oui
21322;Oui
21330;Oui
21331;Oui
21371;Oui
21382;Oui
21487;Oui
21527;Oui
21534;Oui
21599;Oui
21610;Oui
21647;Oui
21680;Oui
21681;Oui
22098;Oui
22160;Oui
24175;Oui
24322;Oui
24551;Oui
25031;Oui
25047;Oui
25056;Oui
25072;Oui
25089;Oui
25094;Oui
25103;Oui
25105;Oui
25107;Oui
25112;Oui
25147;Oui
25166;Oui
25200;Oui
25212;Oui
25258;Oui
25282;Oui
25283;Oui
25287;Oui
25300;Oui
25326;Oui
25331;Oui
25367;Oui
25368;Oui
25373;Oui
25381;Oui
25384;Oui
25401;Oui
25414;Oui
25426;Oui
25438;Oui
25454;Oui
25465;Oui
25466;Oui
25467;Oui
25490;Oui
25511;Oui
25515;Oui
25527;Oui
25545;Oui
25564;Oui
25569;Oui
25579;Oui
25619;Oui
25629;Oui
26001;Oui
26003;Oui
26004;Oui
26005;Oui
26008;Oui
26009;Oui
26010;Oui
26011;Oui
26014;Oui
26015;Oui
26016;Oui
26023;Oui
26024;Oui
26028;Oui
26032;Oui
26034;Oui
26035;Oui
26037;Oui
26038;Oui
26039;Oui
26042;Oui
26045;Oui
26049;Oui
26051;Oui
26052;Oui
26056;Oui
26057;Oui
26058;Oui
26059;Oui
26060;Oui
26061;Oui
26064;Oui
26065;Oui
26068;Oui
26072;Oui
26073;Oui
26074;Oui
26076;Oui
26078;Oui
26079;Oui
26081;Oui
26083;Oui
26084;Oui
26085;Oui
26088;Oui
26092;Oui
26093;Oui
26094;Oui
26095;Oui
26096;Oui
26098;Oui
26099;Oui
26100;Oui
26101;Oui
26102;Oui
26103;Oui
26106;Oui
26107;Oui
26108;Oui
26111;Oui
26113;Oui
26114;Oui
26116;Oui
26119;Oui
26121;Oui
26123;Oui
26124;Oui
26128;Oui
26129;Oui
26131;Oui
26135;Oui
26136;Oui
26137;Oui
26138;Oui
26139;Oui
26140;Oui
26141;Oui
26142;Oui
26143;Oui
26144;Oui
26145;Oui
26149;Oui
26152;Oui
26154;Oui
26157;Oui
26159;Oui
26161;Oui
26162;Oui
26165;Oui
26169;Oui
26170;Oui
26171;Oui
26172;Oui
26173;Oui
26174;Oui
26176;Oui
26177;Oui
26179;Oui
26183;Oui
26210;Oui
26190;Oui
26191;Oui
26194;Oui
26195;Oui
26196;Oui
26197;Oui
26198;Oui
26203;Oui
26205;Oui
26206;Oui
26207;Oui
26211;Oui
26212;Oui
26216;Oui
26217;Oui
26218;Oui
26220;Oui
26223;Oui
26224;Oui
26225;Oui
26231;Oui
26232;Oui
26234;Oui
26235;Oui
26236;Oui
26239;Oui
26243;Oui
26247;Oui
26250;Oui
26252;Oui
26253;Oui
26254;Oui
26256;Oui
26257;Oui
26258;Oui
26259;Oui
26261;Oui
26266;Oui
26268;Oui
26272;Oui
26273;Oui
26275;Oui
26281;Oui
26284;Oui
26290;Oui
26291;Oui
26294;Oui
26295;Oui
26298;Oui
26299;Oui
26301;Oui
26305;Oui
26306;Oui
26309;Oui
26310;Oui
26311;Oui
26313;Oui
26314;Oui
26315;Oui
26319;Oui
26322;Oui
26323;Oui
26324;Oui
26327;Oui
26330;Oui
26331;Oui
26334;Oui
26337;Oui
26338;Oui
26339;Oui
26341;Oui
26343;Oui
26344;Oui
26345;Oui
26346;Oui
26347;Oui
26349;Oui
26350;Oui
26352;Oui
26353;Oui
26355;Oui
26356;Oui
26358;Oui
26360;Oui
26362;Oui
26363;Oui
26364;Oui
26365;Oui
26367;Oui
26378;Oui
26379;Oui
26380;Oui
26381;Oui
26382;Oui
27180;Oui
27393;Oui
28015;Oui
28016;Oui
28024;Oui
28041;Oui
28072;Oui
28088;Oui
28089;Oui
28104;Oui
28127;Oui
28135;Oui
28137;Oui
28143;Oui
28154;Oui
28156;Oui
28160;Oui
28173;Oui
28176;Oui
28177;Oui
28212;Oui
28218;Oui
28227;Oui
28233;Oui
28236;Oui
28251;Oui
28256;Oui
28259;Oui
28269;Oui
28308;Oui
28333;Oui
28337;Oui
28353;Oui
28358;Oui
28359;Oui
28389;Oui
28398;Oui
28415;Oui
28422;Oui
30004;Oui
30006;Oui
30007;Oui
30008;Oui
30009;Oui
30010;Oui
30011;Oui
30013;Oui
30014;Oui
30015;Oui
30017;Oui
30018;Oui
30019;Oui
30020;Oui
30022;Oui
30023;Oui
30026;Oui
30028;Oui
30029;Oui
30035;Oui
30039;Oui
30042;Oui
30043;Oui
30045;Oui
30046;Oui
30051;Oui
30052;Oui
30053;Oui
30056;Oui
30057;Oui
30058;Oui
30059;Oui
30060;Oui
30061;Oui
30062;Oui
30068;Oui
30070;Oui
30074;Oui
30075;Oui
30076;Oui
30083;Oui
30084;Oui
30085;Oui
30086;Oui
30087;Oui
30089;Oui
30092;Oui
30094;Oui
30096;Oui
30098;Oui
30099;Oui
30102;Oui
30103;Oui
30105;Oui
30106;Oui
30107;Oui
30109;Oui
30110;Oui
30111;Oui
30117;Oui
30119;Oui
30122;Oui
30123;Oui
30126;Oui
30128;Oui
30134;Oui
30136;Oui
30141;Oui
30148;Oui
30149;Oui
30151;Oui
30162;Oui
30164;Oui
30166;Oui
30167;Oui
30168;Oui
30172;Oui
30174;Oui
30175;Oui
30179;Oui
30180;Oui
30181;Oui
30185;Oui
30188;Oui
30191;Oui
30192;Oui
30193;Oui
30197;Oui
30198;Oui
30202;Oui
30205;Oui
30207;Oui
30212;Oui
30214;Oui
30215;Oui
30216;Oui
30225;Oui
30226;Oui
30229;Oui
30230;Oui
30232;Oui
30236;Oui
30237;Oui
30239;Oui
30243;Oui
30245;Oui
30246;Oui
30247;Oui
30253;Oui
30254;Oui
30256;Oui
30259;Oui
30262;Oui
30267;Oui
30269;Oui
30271;Oui
30273;Oui
30277;Oui
30278;Oui
30281;Oui
30282;Oui
30284;Oui
30290;Oui
30295;Oui
30296;Oui
30298;Oui
30300;Oui
30302;Oui
30303;Oui
30304;Oui
30305;Oui
30306;Oui
30307;Oui
30309;Oui
30310;Oui
30312;Oui
30313;Oui
30315;Oui
30319;Oui
30320;Oui
30325;Oui
30327;Oui
30329;Oui
30330;Oui
30332;Oui
30334;Oui
30335;Oui
30336;Oui
30337;Oui
30339;Oui
30342;Oui
30343;Oui
30344;Oui
30348;Oui
30351;Oui
30352;Oui
31029;Oui
31032;Oui
31038;Oui
31044;Oui
31057;Oui
31067;Oui
31074;Oui
31080;Oui
31084;Oui
31101;Oui
31138;Oui
31162;Oui
31163;Oui
31165;Oui
31169;Oui
31170;Oui
31215;Oui
31216;Oui
31229;Oui
31234;Oui
31284;Oui
31351;Oui
31358;Oui
31360;Oui
31379;Oui
31389;Oui
31392;Oui
31400;Oui
31418;Oui
31420;Oui
31435;Oui
31439;Oui
31454;Oui
31475;Oui
31481;Oui
31488;Oui
31493;Oui
31495;Oui
31498;Oui
31499;Oui
31501;Oui
31506;Oui
31518;Oui
31547;Oui
31555;Oui
31561;Oui
31567;Oui
31573;Oui
31577;Oui
31580;Oui
32009;Oui
32013;Oui
32019;Oui
32023;Oui
32025;Oui
32027;Oui
32032;Oui
32059;Oui
32060;Oui
32062;Oui
32066;Oui
32071;Oui
32077;Oui
32082;Oui
32090;Oui
32096;Oui
32107;Oui
32108;Oui
32109;Oui
32117;Oui
32135;Oui
32146;Oui
32150;Oui
32153;Oui
32160;Oui
32163;Oui
32169;Oui
32175;Oui
32176;Oui
32182;Oui
32189;Oui
32208;Oui
32213;Oui
32216;Oui
32217;Oui
32231;Oui
32239;Oui
32240;Oui
32242;Oui
32247;Oui
32253;Oui
32255;Oui
32267;Oui
32276;Oui
32286;Oui
32303;Oui
32306;Oui
32313;Oui
32320;Oui
32325;Oui
32327;Oui
32328;Oui
32331;Oui
32345;Oui
32348;Oui
32353;Oui
32354;Oui
32360;Oui
32361;Oui
32363;Oui
32364;Oui
32367;Oui
32370;Oui
32385;Oui
32389;Oui
32391;Oui
32395;Oui
32396;Oui
32398;Oui
32403;Oui
32404;Oui
32406;Oui
32408;Oui
32414;Oui
32422;Oui
32429;Oui
32432;Oui
32450;Oui
32458;Oui
32463;Oui
33097;Oui
33424;Oui
34001;Oui
34004;Oui
34006;Oui
34007;Oui
34008;Oui
34009;Oui
34011;Oui
34014;Oui
34015;Oui
34020;Oui
34021;Oui
34022;Oui
34030;Oui
34031;Oui
34032;Oui
34034;Oui
34035;Oui
34039;Oui
34041;Oui
34043;Oui
34044;Oui
34051;Oui
34054;Oui
34057;Oui
34060;Oui
34066;Oui
34073;Oui
34074;Oui
34077;Oui
34081;Oui
34082;Oui
34086;Oui
34090;Oui
34092;Oui
34097;Oui
34103;Oui
34108;Oui
34113;Oui
34117;Oui
34119;Oui
34120;Oui
34122;Oui
34124;Oui
34133;Oui
34134;Oui
34136;Oui
34139;Oui
34140;Oui
34144;Oui
34145;Oui
34146;Oui
34148;Oui
34153;Oui
34155;Oui
34157;Oui
34160;Oui
34163;Oui
34164;Oui
34165;Oui
34166;Oui
34167;Oui
34169;Oui
34172;Oui
34175;Oui
34176;Oui
34179;Oui
34190;Oui
34193;Oui
34200;Oui
34214;Oui
34216;Oui
34218;Oui
34222;Oui
34224;Oui
34225;Oui
34235;Oui
34237;Oui
34243;Oui
34245;Oui
34247;Oui
34250;Oui
34255;Oui
34256;Oui
34257;Oui
34261;Oui
34262;Oui
34266;Oui
34267;Oui
34272;Oui
34276;Oui
34285;Oui
34287;Oui
34288;Oui
34289;Oui
34291;Oui
34293;Oui
34294;Oui
34295;Oui
34296;Oui
34300;Oui
34307;Oui
34310;Oui
34312;Oui
34313;Oui
34314;Oui
34318;Oui
34319;Oui
34321;Oui
34322;Oui
34325;Oui
34328;Oui
34332;Oui
34337;Oui
34344;Oui
35024;Oui
35071;Oui
35131;Oui
35218;Oui
35255;Oui
35308;Oui
36127;Oui
36171;Oui
36175;Oui
37006;Oui
37016;Oui
37032;Oui
37098;Oui
37104;Oui
37109;Oui
37122;Oui
37142;Oui
37243;Oui
38001;Oui
38002;Oui
38003;Oui
38005;Oui
38008;Oui
38010;Oui
38011;Oui
38012;Oui
38013;Oui
38015;Oui
38017;Oui
38022;Oui
38023;Oui
38023;Oui
38027;Oui
38029;Oui
38031;Oui
38032;Oui
38033;Oui
38034;Oui
38035;Oui
38036;Oui
38037;Oui
38038;Oui
38039;Oui
38046;Oui
38048;Oui
38051;Oui
38052;Oui
38053;Oui
38054;Oui
38055;Oui
38057;Oui
38058;Oui
38061;Oui
38062;Oui
38063;Oui
38064;Oui
38067;Oui
38068;Oui
38070;Oui
38071;Oui
38072;Oui
38074;Oui
38075;Oui
38076;Oui
38081;Oui
38083;Oui
38084;Oui
38085;Oui
38087;Oui
38089;Oui
38090;Oui
38091;Oui
38093;Oui
38094;Oui
38097;Oui
38101;Oui
38102;Oui
38104;Oui
38105;Oui
38107;Oui
38109;Oui
38110;Oui
38111;Oui
38113;Oui
38114;Oui
38115;Oui
38118;Oui
38120;Oui
38124;Oui
38130;Oui
38131;Oui
38132;Oui
38133;Oui
38136;Oui
38137;Oui
38138;Oui
38139;Oui
38140;Oui
38141;Oui
38146;Oui
38147;Oui
38148;Oui
38150;Oui
38151;Oui
38155;Oui
38157;Oui
38158;Oui
38159;Oui
38160;Oui
38166;Oui
38169;Oui
38174;Oui
38176;Oui
38177;Oui
38179;Oui
38180;Oui
38183;Oui
38185;Oui
38188;Oui
38189;Oui
38190;Oui
38192;Oui
38193;Oui
38194;Oui
38195;Oui
38198;Oui
38199;Oui
38200;Oui
38203;Oui
38205;Oui
38209;Oui
38210;Oui
38211;Oui
38213;Oui
38218;Oui
38219;Oui
38222;Oui
38223;Oui
38225;Oui
38228;Oui
38229;Oui
38230;Oui
38232;Oui
38236;Oui
38238;Oui
38239;Oui
38244;Oui
38246;Oui
38249;Oui
38250;Oui
38252;Oui
38257;Oui
38259;Oui
38261;Oui
38268;Oui
38270;Oui
38271;Oui
38279;Oui
38280;Oui
38281;Oui
38282;Oui
38284;Oui
38285;Oui
38287;Oui
38289;Oui
38290;Oui
38294;Oui
38295;Oui
38296;Oui
38297;Oui
38300;Oui
38307;Oui
38308;Oui
38310;Oui
38311;Oui
38313;Oui
38314;Oui
38315;Oui
38316;Oui
38317;Oui
38318;Oui
38320;Oui
38323;Oui
38324;Oui
38330;Oui
38331;Oui
38332;Oui
38333;Oui
38334;Oui
38335;Oui
38336;Oui
38339;Oui
38341;Oui
38344;Oui
38347;Oui
38348;Oui
38349;Oui
38351;Oui
38352;Oui
38353;Oui
38354;Oui
38356;Oui
38359;Oui
38361;Oui
38362;Oui
38363;Oui
38366;Oui
38369;Oui
38370;Oui
38373;Oui
38374;Oui
38375;Oui
38376;Oui
38377;Oui
38378;Oui
38379;Oui
38381;Oui
38382;Oui
38383;Oui
38384;Oui
38386;Oui
38387;Oui
38389;Oui
38390;Oui
38392;Oui
38393;Oui
38396;Oui
38398;Oui
38399;Oui
38400;Oui
38401;Oui
38402;Oui
38405;Oui
38406;Oui
38409;Oui
38410;Oui
38413;Oui
38415;Oui
38419;Oui
38421;Oui
38422;Oui
38426;Oui
38427;Oui
38430;Oui
38431;Oui
38432;Oui
38434;Oui
38436;Oui
38438;Oui
38440;Oui
38446;Oui
38449;Oui
38451;Oui
38454;Oui
38455;Oui
38456;Oui
38457;Oui
38458;Oui
38459;Oui
38460;Oui
38463;Oui
38464;Oui
38465;Oui
38466;Oui
38467;Oui
38468;Oui
38472;Oui
38473;Oui
38474;Oui
38475;Oui
38476;Oui
38479;Oui
38480;Oui
38481;Oui
38483;Oui
38484;Oui
38487;Oui
38488;Oui
38489;Oui
38490;Oui
38494;Oui
38495;Oui
38496;Oui
38498;Oui
38503;Oui
38504;Oui
38505;Oui
38507;Oui
38508;Oui
38509;Oui
38511;Oui
38512;Oui
38515;Oui
38517;Oui
38519;Oui
38520;Oui
38523;Oui
38524;Oui
38525;Oui
38526;Oui
38527;Oui
38529;Oui
38530;Oui
38532;Oui
38536;Oui
38537;Oui
38538;Oui
38539;Oui
38540;Oui
38542;Oui
38544;Oui
38545;Oui
38546;Oui
38548;Oui
38549;Oui
38551;Oui
38553;Oui
38554;Oui
38555;Oui
38556;Oui
38557;Oui
38558;Oui
38559;Oui
38561;Oui
38562;Oui
38563;Oui
38565;Oui
38567;Oui
39001;Oui
39002;Oui
39003;Oui
39011;Oui
39013;Oui
39014;Oui
39016;Oui
39017;Oui
39018;Oui
39021;Oui
39022;Oui
39024;Oui
39025;Oui
39042;Oui
39045;Oui
39049;Oui
39051;Oui
39058;Oui
39062;Oui
39063;Oui
39576;Oui
39078;Oui
39080;Oui
39086;Oui
39088;Oui
39092;Oui
39096;Oui
39105;Oui
39106;Oui
39107;Oui
39112;Oui
39121;Oui
39130;Oui
39134;Oui
39138;Oui
39150;Oui
39166;Oui
39167;Oui
39168;Oui
39173;Oui
39179;Oui
39182;Oui
39184;Oui
39185;Oui
39189;Oui
39197;Oui
39199;Oui
39201;Oui
39205;Oui
39207;Oui
39209;Oui
39216;Oui
39222;Oui
39239;Oui
39245;Oui
39246;Oui
39247;Oui
39258;Oui
39266;Oui
39267;Oui
39270;Oui
39283;Oui
39290;Oui
39296;Oui
39308;Oui
39317;Oui
39318;Oui
39321;Oui
39326;Oui
39331;Oui
39333;Oui
39336;Oui
39348;Oui
39352;Oui
39365;Oui
39366;Oui
39370;Oui
39387;Oui
39390;Oui
39399;Oui
39405;Oui
39408;Oui
39415;Oui
39423;Oui
39425;Oui
39426;Oui
39429;Oui
39431;Oui
39435;Oui
39445;Oui
39455;Oui
39462;Oui
39465;Oui
39470;Oui
39471;Oui
39476;Oui
39489;Oui
39490;Oui
39492;Oui
39501;Oui
39504;Oui
39505;Oui
39510;Oui
39511;Oui
39512;Oui
39520;Oui
39526;Oui
39537;Oui
39547;Oui
39552;Oui
39553;Oui
39556;Oui
39557;Oui
39561;Oui
39574;Oui
39576;Oui
39582;Oui
39583;Oui
41007;Oui
41013;Oui
41025;Oui
41034;Oui
41042;Oui
41068;Oui
41085;Oui
41086;Oui
41110;Oui
41114;Oui
41148;Oui
41156;Oui
41168;Oui
41180;Oui
41209;Oui
41224;Oui
41232;Oui
41247;Oui
41260;Oui
41262;Oui
42002;Oui
42003;Oui
42005;Oui
42009;Oui
42010;Oui
42011;Oui
42013;Oui
42016;Oui
42017;Oui
42019;Oui
42021;Oui
42023;Oui
42025;Oui
42026;Oui
42028;Oui
42029;Oui
42030;Oui
42032;Oui
42033;Oui
42035;Oui
42040;Oui
42044;Oui
42045;Oui
42050;Oui
42051;Oui
42056;Oui
42060;Oui
42061;Oui
42065;Oui
42067;Oui
42069;Oui
42071;Oui
42074;Oui
42084;Oui
42088;Oui
42090;Oui
42092;Oui
42096;Oui
42101;Oui
42103;Oui
42106;Oui
42110;Oui
42112;Oui
42115;Oui
42120;Oui
42126;Oui
42127;Oui
42128;Oui
42129;Oui
42130;Oui
42132;Oui
42138;Oui
42140;Oui
42142;Oui
42146;Oui
42149;Oui
42150;Oui
42153;Oui
42154;Oui
42160;Oui
42161;Oui
42162;Oui
42166;Oui
42167;Oui
42168;Oui
42169;Oui
42170;Oui
42171;Oui
42172;Oui
42173;Oui
42175;Oui
42177;Oui
42180;Oui
42185;Oui
42187;Oui
42189;Oui
42193;Oui
42202;Oui
42206;Oui
42207;Oui
42210;Oui
42212;Oui
42218;Oui
42219;Oui
42222;Oui
42223;Oui
42226;Oui
42227;Oui
42228;Oui
42229;Oui
42230;Oui
42232;Oui
42233;Oui
42234;Oui
42240;Oui
42241;Oui
42243;Oui
42246;Oui
42249;Oui
42267;Oui
42274;Oui
42278;Oui
42281;Oui
42282;Oui
42288;Oui
42289;Oui
42297;Oui
42299;Oui
42300;Oui
42301;Oui
42304;Oui
42306;Oui
42307;Oui
42308;Oui
42312;Oui
42313;Oui
42320;Oui
42321;Oui
42324;Oui
42326;Oui
42333;Oui
43001;Oui
43002;Oui
43003;Oui
43005;Oui
43006;Oui
43009;Oui
43010;Oui
43012;Oui
43013;Oui
43017;Oui
43018;Oui
43020;Oui
43021;Oui
43022;Oui
43025;Oui
43027;Oui
43028;Oui
43030;Oui
43031;Oui
43033;Oui
43036;Oui
43037;Oui
43038;Oui
43039;Oui
43040;Oui
43044;Oui
43048;Oui
43049;Oui
43052;Oui
43056;Oui
43065;Oui
43070;Oui
43072;Oui
43073;Oui
43074;Oui
43076;Oui
43077;Oui
43080;Oui
43084;Oui
43086;Oui
43087;Oui
43088;Oui
43095;Oui
43096;Oui
43098;Oui
43103;Oui
43107;Oui
43111;Oui
43114;Oui
43119;Oui
43120;Oui
43121;Oui
43123;Oui
43124;Oui
43126;Oui
43128;Oui
43131;Oui
43132;Oui
43135;Oui
43137;Oui
43140;Oui
43148;Oui
43150;Oui
43152;Oui
43153;Oui
43154;Oui
43157;Oui
43159;Oui
43160;Oui
43162;Oui
43164;Oui
43165;Oui
43168;Oui
43172;Oui
43173;Oui
43175;Oui
43177;Oui
43178;Oui
43181;Oui
43185;Oui
43186;Oui
43187;Oui
43189;Oui
43190;Oui
43192;Oui
43193;Oui
43196;Oui
43199;Oui
43201;Oui
43205;Oui
43211;Oui
43213;Oui
43214;Oui
43215;Oui
43216;Oui
43219;Oui
43222;Oui
43223;Oui
43227;Oui
43229;Oui
43233;Oui
43234;Oui
43242;Oui
43251;Oui
43256;Oui
43260;Oui
43261;Oui
43262;Oui
43263;Oui
43264;Oui
43265;Oui
43268;Oui
44052;Oui
44058;Oui
44088;Oui
44103;Oui
44109;Oui
44162;Oui
45004;Oui
45043;Oui
45194;Oui
45226;Oui
45232;Oui
45241;Oui
45290;Oui
46001;Oui
46003;Oui
46006;Oui
46007;Oui
46008;Oui
46010;Oui
46011;Oui
46017;Oui
46018;Oui
46022;Oui
46026;Oui
46028;Oui
46029;Oui
46030;Oui
46032;Oui
46033;Oui
46036;Oui
46037;Oui
46038;Oui
46040;Oui
46046;Oui
46049;Oui
46053;Oui
46057;Oui
46061;Oui
46063;Oui
46064;Oui
46069;Oui
46074;Oui
46076;Oui
46078;Oui
46079;Oui
46083;Oui
46085;Oui
46087;Oui
46091;Oui
46033;Oui
46105;Oui
46109;Oui
46117;Oui
46118;Oui
46120;Oui
46121;Oui
46126;Oui
46127;Oui
46129;Oui
46130;Oui
46143;Oui
46144;Oui
46148;Oui
46149;Oui
46155;Oui
46161;Oui
46163;Oui
46164;Oui
46170;Oui
46171;Oui
46172;Oui
46173;Oui
46174;Oui
46178;Oui
46183;Oui
46185;Oui
46188;Oui
46189;Oui
46190;Oui
46191;Oui
46199;Oui
46201;Oui
46203;Oui
46206;Oui
46207;Oui
46208;Oui
46213;Oui
46215;Oui
46217;Oui
46224;Oui
46225;Oui
46226;Oui
46229;Oui
46254;Oui
46258;Oui
46259;Oui
46262;Oui
46263;Oui
46266;Oui
46268;Oui
46273;Oui
46279;Oui
46284;Oui
46289;Oui
46295;Oui
46296;Oui
46301;Oui
46306;Oui
46307;Oui
46311;Oui
46312;Oui
46318;Oui
46320;Oui
46323;Oui
46324;Oui
46334;Oui
46335;Oui
46336;Oui
46340;Oui
47051;Oui
48002;Oui
48003;Oui
48004;Oui
48005;Oui
48008;Oui
48013;Oui
48018;Oui
48020;Oui
48034;Oui
48037;Oui
48039;Oui
48045;Oui
48059;Oui
48061;Oui
48067;Oui
48068;Oui
48072;Oui
48075;Oui
48085;Oui
48089;Oui
48094;Oui
48097;Oui
48099;Oui
48103;Oui
48106;Oui
48107;Oui
48121;Oui
48124;Oui
48128;Oui
48129;Oui
48132;Oui
48145;Oui
48146;Oui
48148;Oui
48152;Oui
48156;Oui
48157;Oui
48163;Oui
48169;Oui
48174;Oui
48175;Oui
48177;Oui
48179;Oui
48188;Oui
48191;Oui
48193;Oui
48194;Oui
48198;Oui
49176;Oui
58008;Oui
58015;Oui
58020;Oui
58038;Oui
58042;Oui
58044;Oui
58059;Oui
58072;Oui
58086;Oui
58095;Oui
58102;Oui
58112;Oui
58122;Oui
58151;Oui
58164;Oui
58176;Oui
58190;Oui
58192;Oui
58193;Oui
58207;Oui
58211;Oui
58224;Oui
58227;Oui
58231;Oui
58246;Oui
58273;Oui
58296;Oui
58300;Oui
58302;Oui
58303;Oui
60157;Oui
63001;Oui
63002;Oui
63003;Oui
63005;Oui
63009;Oui
63010;Oui
63011;Oui
63012;Oui
63013;Oui
63015;Oui
63016;Oui
63017;Oui
63021;Oui
63023;Oui
63024;Oui
63026;Oui
63027;Oui
63030;Oui
63032;Oui
63035;Oui
63037;Oui
63040;Oui
63041;Oui
63042;Oui
63043;Oui
63044;Oui
63049;Oui
63051;Oui
63053;Oui
63056;Oui
63058;Oui
63059;Oui
63063;Oui
63064;Oui
63069;Oui
63071;Oui
63075;Oui
63076;Oui
63079;Oui
63081;Oui
63086;Oui
63089;Oui
63094;Oui
63098;Oui
63101;Oui
63106;Oui
63112;Oui
63113;Oui
63119;Oui
63123;Oui
63124;Oui
63126;Oui
63135;Oui
63136;Oui
63138;Oui
63140;Oui
63143;Oui
63146;Oui
63148;Oui
63150;Oui
63151;Oui
63157;Oui
63158;Oui
63161;Oui
63164;Oui
63165;Oui
63168;Oui
63169;Oui
63174;Oui
63178;Oui
63179;Oui
63185;Oui
63186;Oui
63188;Oui
63189;Oui
63192;Oui
63195;Oui
63196;Oui
63199;Oui
63203;Oui
63206;Oui
63214;Oui
63215;Oui
63216;Oui
63223;Oui
63226;Oui
63229;Oui
63230;Oui
63232;Oui
63234;Oui
63238;Oui
63244;Oui
63245;Oui
63246;Oui
63248;Oui
63249;Oui
63251;Oui
63255;Oui
63256;Oui
63257;Oui
63262;Oui
63263;Oui
63264;Oui
63265;Oui
63269;Oui
63271;Oui
63272;Oui
63276;Oui
63277;Oui
63278;Oui
63283;Oui
63284;Oui
63285;Oui
63287;Oui
63288;Oui
63294;Oui
63295;Oui
63298;Oui
63300;Oui
63306;Oui
63307;Oui
63311;Oui
63317;Oui
63325;Oui
63327;Oui
63332;Oui
63339;Oui
63341;Oui
63344;Oui
63345;Oui
63347;Oui
63348;Oui
63349;Oui
63355;Oui
63357;Oui
63358;Oui
63359;Oui
63362;Oui
63364;Oui
63365;Oui
63366;Oui
63368;Oui
63370;Oui
63371;Oui
63372;Oui
63378;Oui
63379;Oui
63387;Oui
63390;Oui
63393;Oui
63394;Oui
63400;Oui
63401;Oui
63402;Oui
63405;Oui
63406;Oui
63409;Oui
63411;Oui
63415;Oui
63423;Oui
63424;Oui
63425;Oui
63428;Oui
63434;Oui
63439;Oui
63451;Oui
63453;Oui
63454;Oui
63455;Oui
63457;Oui
63460;Oui
63461;Oui
63463;Oui
63465;Oui
63466;Oui
63470;Oui
63472;Oui
65004;Oui
65006;Oui
65021;Oui
65024;Oui
65032;Oui
65035;Oui
65047;Oui
65048;Oui
65049;Oui
65059;Oui
65066;Oui
65073;Oui
65077;Oui
65086;Oui
65096;Oui
65099;Oui
65100;Oui
65108;Oui
65116;Oui
65121;Oui
65123;Oui
65140;Oui
65153;Oui
65157;Oui
65159;Oui
65160;Oui
65176;Oui
65189;Oui
65193;Oui
65194;Oui
65196;Oui
65206;Oui
65209;Oui
65212;Oui
65213;Oui
65221;Oui
65222;Oui
65223;Oui
65226;Oui
65236;Oui
65240;Oui
65255;Oui
65258;Oui
65259;Oui
65263;Oui
65277;Oui
65285;Oui
65286;Oui
65292;Oui
65299;Oui
65304;Oui
65313;Oui
65322;Oui
65330;Oui
65335;Oui
65340;Oui
65359;Oui
65361;Oui
65370;Oui
65371;Oui
65372;Oui
65382;Oui
65387;Oui
65388;Oui
65389;Oui
65401;Oui
65408;Oui
65409;Oui
65413;Oui
65422;Oui
65430;Oui
65431;Oui
65435;Oui
65438;Oui
65440;Oui
65447;Oui
65456;Oui
65460;Oui
65468;Oui
65473;Oui
65475;Oui
65477;Oui
66011;Oui
66015;Oui
66032;Oui
66037;Oui
66043;Oui
66057;Oui
66059;Oui
66061;Oui
66081;Oui
66092;Oui
66094;Oui
66101;Oui
66116;Oui
66125;Oui
66136;Oui
66149;Oui
66156;Oui
66158;Oui
66170;Oui
66175;Oui
66189;Oui
66190;Oui
66205;Oui
66211;Oui
67348;Oui
68234;Oui
69003;Oui
69004;Oui
69006;Oui
69007;Oui
69009;Oui
69013;Oui
69018;Oui
69019;Oui
69022;Oui
69023;Oui
69024;Oui
69027;Oui
69028;Oui
69030;Oui
69031;Oui
69032;Oui
69034;Oui
69036;Oui
69038;Oui
69040;Oui
69042;Oui
69043;Oui
69044;Oui
69046;Oui
69047;Oui
69050;Oui
69051;Oui
69052;Oui
69055;Oui
69056;Oui
69058;Oui
69059;Oui
69061;Oui
69062;Oui
69063;Oui
69064;Oui
69069;Oui
69070;Oui
69071;Oui
69072;Oui
69076;Oui
69080;Oui
69081;Oui
69085;Oui
69086;Oui
69088;Oui
69089;Oui
69090;Oui
69091;Oui
69092;Oui
69093;Oui
69095;Oui
69096;Oui
69097;Oui
69100;Oui
69108;Oui
69109;Oui
69110;Oui
69112;Oui
69115;Oui
69118;Oui
69119;Oui
69122;Oui
69123;Oui
69130;Oui
69133;Oui
69134;Oui
69136;Oui
69137;Oui
69141;Oui
69148;Oui
69149;Oui
69152;Oui
69153;Oui
69154;Oui
69156;Oui
69157;Oui
69163;Oui
69165;Oui
69166;Oui
69168;Oui
69170;Oui
69171;Oui
69172;Oui
69173;Oui
69175;Oui
69176;Oui
69177;Oui
69179;Oui
69182;Oui
69186;Oui
69189;Oui
69191;Oui
69193;Oui
69196;Oui
69197;Oui
69198;Oui
69199;Oui
69201;Oui
69202;Oui
69203;Oui
69204;Oui
69205;Oui
69206;Oui
69207;Oui
69208;Oui
69215;Oui
69218;Oui
69219;Oui
69220;Oui
69227;Oui
69228;Oui
69229;Oui
69235;Oui
69236;Oui
69238;Oui
69241;Oui
69242;Oui
69244;Oui
69245;Oui
69246;Oui
69248;Oui
69253;Oui
69256;Oui
69257;Oui
69259;Oui
69260;Oui
69264;Oui
69265;Oui
69266;Oui
69268;Oui
69269;Oui
69270;Oui
69271;Oui
69273;Oui
69275;Oui
69276;Oui
69277;Oui
69278;Oui
69279;Oui
69280;Oui
69281;Oui
69282;Oui
69283;Oui
69284;Oui
69285;Oui
69286;Oui
69287;Oui
69288;Oui
69290;Oui
69291;Oui
69294;Oui
69295;Oui
69297;Oui
69298;Oui
69299;Oui
70002;Oui
70031;Oui
70080;Oui
70101;Oui
70107;Oui
70120;Oui
70122;Oui
70152;Oui
70218;Oui
70248;Oui
70257;Oui
70265;Oui
70310;Oui
70334;Oui
70336;Oui
70339;Oui
70385;Oui
70408;Oui
70428;Oui
70432;Oui
70443;Oui
70445;Oui
70451;Oui
70478;Oui
70505;Oui
70514;Oui
70532;Oui
71002;Oui
71014;Oui
71025;Oui
71036;Oui
71056;Oui
71064;Oui
71073;Oui
71081;Oui
71087;Oui
71094;Oui
71100;Oui
71101;Oui
71117;Oui
71119;Oui
71120;Oui
71124;Oui
71131;Oui
71150;Oui
71158;Oui
71173;Oui
71176;Oui
71189;Oui
71191;Oui
71195;Oui
71196;Oui
71198;Oui
71204;Oui
71206;Oui
71207;Oui
71228;Oui
71252;Oui
71285;Oui
71289;Oui
71297;Oui
71300;Oui
71319;Oui
71328;Oui
71333;Oui
71340;Oui
71342;Oui
71345;Oui
71348;Oui
71359;Oui
71360;Oui
71371;Oui
71378;Oui
71380;Oui
71383;Oui
71398;Oui
71410;Oui
71411;Oui
71425;Oui
71431;Oui
71440;Oui
71441;Oui
71444;Oui
71454;Oui
71456;Oui
71462;Oui
71489;Oui
71493;Oui
71495;Oui
71497;Oui
71508;Oui
71514;Oui
71516;Oui
71522;Oui
71538;Oui
71543;Oui
71548;Oui
71550;Oui
71552;Oui
71555;Oui
71558;Oui
71578;Oui
71588;Oui
71591;Oui
72013;Oui
72021;Oui
72226;Oui
72228;Oui
73001;Oui
73004;Oui
73006;Oui
73007;Oui
73008;Oui
73010;Oui
73011;Oui
73015;Oui
73017;Oui
73019;Oui
73020;Oui
73021;Oui
73024;Oui
73025;Oui
73027;Oui
73028;Oui
73029;Oui
73033;Oui
73039;Oui
73040;Oui
73042;Oui
73043;Oui
73050;Oui
73051;Oui
73052;Oui
73053;Oui
73055;Oui
73058;Oui
73059;Oui
73061;Oui
73063;Oui
73064;Oui
73065;Oui
73067;Oui
73068;Oui
73070;Oui
73072;Oui
73074;Oui
73077;Oui
73079;Oui
73082;Oui
73083;Oui
73085;Oui
73090;Oui
73100;Oui
73104;Oui
73105;Oui
73106;Oui
73110;Oui
73113;Oui
73114;Oui
73117;Oui
73119;Oui
73120;Oui
73121;Oui
73122;Oui
73124;Oui
73129;Oui
73130;Oui
73133;Oui
73140;Oui
73141;Oui
73142;Oui
73145;Oui
73146;Oui
73151;Oui
73157;Oui
73160;Oui
73162;Oui
73170;Oui
73173;Oui
73178;Oui
73179;Oui
73180;Oui
73182;Oui
73183;Oui
73184;Oui
73187;Oui
73189;Oui
73191;Oui
73192;Oui
73193;Oui
73135;Oui
73204;Oui
73208;Oui
73211;Oui
73213;Oui
73214;Oui
73216;Oui
73218;Oui
73219;Oui
73222;Oui
73226;Oui
73227;Oui
73228;Oui
73231;Oui
73240;Oui
73241;Oui
73245;Oui
73248;Oui
73249;Oui
73250;Oui
73252;Oui
73253;Oui
73255;Oui
73257;Oui
73258;Oui
73236;Oui
73268;Oui
73269;Oui
73270;Oui
73271;Oui
73272;Oui
73276;Oui
73282;Oui
73283;Oui
73288;Oui
73292;Oui
73293;Oui
73297;Oui
73301;Oui
73302;Oui
73303;Oui
73308;Oui
73311;Oui
73312;Oui
73314;Oui
73317;Oui
73323;Oui
73326;Oui
73327;Oui
73330;Oui
74002;Oui
74003;Oui
74007;Oui
74008;Oui
74010;Oui
74012;Oui
74015;Oui
74018;Oui
74025;Oui
74026;Oui
74031;Oui
74035;Oui
74040;Oui
74042;Oui
74045;Oui
74046;Oui
74050;Oui
74051;Oui
74053;Oui
74057;Oui
74058;Oui
74061;Oui
74063;Oui
74064;Oui
74065;Oui
74067;Oui
74068;Oui
74071;Oui
74074;Oui
74076;Oui
74077;Oui
74086;Oui
74090;Oui
74096;Oui
74098;Oui
74100;Oui
74104;Oui
74105;Oui
74111;Oui
74112;Oui
74116;Oui
74117;Oui
74119;Oui
74121;Oui
74122;Oui
74123;Oui
74124;Oui
74129;Oui
74131;Oui
74133;Oui
74137;Oui
74140;Oui
74142;Oui
74144;Oui
74145;Oui
74146;Oui
74152;Oui
74156;Oui
74157;Oui
74159;Oui
74160;Oui
74161;Oui
74168;Oui
74170;Oui
74172;Oui
74173;Oui
74174;Oui
74176;Oui
74180;Oui
74183;Oui
74184;Oui
74186;Oui
74188;Oui
74189;Oui
74191;Oui
74192;Oui
74194;Oui
74195;Oui
74202;Oui
74208;Oui
74213;Oui
74215;Oui
74216;Oui
74218;Oui
74220;Oui
74224;Oui
74225;Oui
74228;Oui
74231;Oui
74233;Oui
74234;Oui
74235;Oui
74250;Oui
74252;Oui
74254;Oui
74255;Oui
74256;Oui
74257;Oui
74262;Oui
74264;Oui
74267;Oui
74269;Oui
74271;Oui
74272;Oui
74276;Oui
74278;Oui
74280;Oui
74281;Oui
74282;Oui
74283;Oui
74285;Oui
74287;Oui
74289;Oui
74291;Oui
74294;Oui
74297;Oui
74298;Oui
74307;Oui
74308;Oui
74309;Oui
74312;Oui
74313;Oui
74314;Oui
76568;Oui
78646;Oui
79048;Oui
79081;Oui
79100;Oui
79127;Oui
79133;Oui
79137;Oui
79185;Oui
79191;Oui
81002;Oui
81005;Oui
81011;Oui
81012;Oui
81017;Oui
81025;Oui
81029;Oui
81038;Oui
81039;Oui
81042;Oui
81044;Oui
81045;Oui
81046;Oui
81049;Oui
81060;Oui
81062;Oui
81064;Oui
81066;Oui
81067;Oui
81070;Oui
81071;Oui
81075;Oui
81077;Oui
81078;Oui
81086;Oui
81090;Oui
81098;Oui
81102;Oui
81105;Oui
81108;Oui
81111;Oui
81112;Oui
81116;Oui
81118;Oui
81120;Oui
81122;Oui
81124;Oui
81127;Oui
81135;Oui
81136;Oui
81138;Oui
81139;Oui
81144;Oui
81145;Oui
81146;Oui
81149;Oui
81151;Oui
81156;Oui
81158;Oui
81160;Oui
81163;Oui
81169;Oui
81172;Oui
81175;Oui
81176;Oui
81181;Oui
81185;Oui
81186;Oui
81188;Oui
81190;Oui
81191;Oui
81200;Oui
81202;Oui
81207;Oui
81211;Oui
81215;Oui
81216;Oui
81217;Oui
81222;Oui
81227;Oui
81229;Oui
81233;Oui
81244;Oui
81257;Oui
81259;Oui
81261;Oui
81262;Oui
81266;Oui
81271;Oui
81272;Oui
81281;Oui
81285;Oui
81286;Oui
81292;Oui
81293;Oui
81295;Oui
81297;Oui
81306;Oui
81311;Oui
81313;Oui
81314;Oui
82010;Oui
82012;Oui
82013;Oui
82016;Oui
82019;Oui
82020;Oui
82021;Oui
82022;Oui
82024;Oui
82025;Oui
82026;Oui
82028;Oui
82029;Oui
82031;Oui
82035;Oui
82037;Oui
82038;Oui
82039;Oui
82042;Oui
82045;Oui
82049;Oui
82051;Oui
82052;Oui
82063;Oui
82072;Oui
82075;Oui
82077;Oui
82080;Oui
82087;Oui
82088;Oui
82090;Oui
82093;Oui
82094;Oui
82097;Oui
82101;Oui
82110;Oui
82112;Oui
82117;Oui
82119;Oui
82120;Oui
82121;Oui
82124;Oui
82126;Oui
82127;Oui
82131;Oui
82133;Oui
82134;Oui
82137;Oui
82139;Oui
82140;Oui
82148;Oui
82153;Oui
82154;Oui
82158;Oui
82170;Oui
82171;Oui
82176;Oui
82179;Oui
82181;Oui
82182;Oui
82186;Oui
82187;Oui
82189;Oui
82195;Oui
83001;Oui
83005;Oui
83006;Oui
83011;Oui
83012;Oui
83013;Oui
83015;Oui
83017;Oui
83019;Oui
83022;Oui
83026;Oui
83028;Oui
83032;Oui
83036;Oui
83039;Oui
83041;Oui
83046;Oui
83052;Oui
83054;Oui
83055;Oui
83056;Oui
83060;Oui
83061;Oui
83065;Oui
83067;Oui
83068;Oui
83070;Oui
83077;Oui
83078;Oui
83082;Oui
83083;Oui
83084;Oui
83086;Oui
83087;Oui
83088;Oui
83090;Oui
83091;Oui
83099;Oui
83100;Oui
83101;Oui
83103;Oui
83107;Oui
83110;Oui
83118;Oui
83123;Oui
83129;Oui
83130;Oui
83135;Oui
83137;Oui
83138;Oui
83141;Oui
83149;Oui
83152;Oui
84001;Oui
84002;Oui
84003;Oui
84004;Oui
84005;Oui
84006;Oui
84007;Oui
84008;Oui
84011;Oui
84012;Oui
84014;Oui
84015;Oui
84016;Oui
84017;Oui
84018;Oui
84019;Oui
84022;Oui
84026;Oui
84027;Oui
84029;Oui
84030;Oui
84031;Oui
84033;Oui
84034;Oui
84035;Oui
84037;Oui
84038;Oui
84040;Oui
84041;Oui
84042;Oui
84043;Oui
84044;Oui
84045;Oui
84046;Oui
84047;Oui
84049;Oui
84051;Oui
84052;Oui
84054;Oui
84055;Oui
84056;Oui
84058;Oui
84059;Oui
84060;Oui
84062;Oui
84063;Oui
84064;Oui
84065;Oui
84067;Oui
84068;Oui
84069;Oui
84071;Oui
84072;Oui
84073;Oui
84074;Oui
84075;Oui
84077;Oui
84079;Oui
84080;Oui
84081;Oui
84082;Oui
84083;Oui
84085;Oui
84086;Oui
84088;Oui
84089;Oui
84090;Oui
84091;Oui
84092;Oui
84093;Oui
84094;Oui
84096;Oui
84097;Oui
84098;Oui
84099;Oui
84100;Oui
84102;Oui
84104;Oui
84106;Oui
84107;Oui
84108;Oui
84111;Oui
84112;Oui
84113;Oui
84114;Oui
84115;Oui
84116;Oui
84118;Oui
84119;Oui
84121;Oui
84122;Oui
84124;Oui
84126;Oui
84128;Oui
84130;Oui
84131;Oui
84132;Oui
84134;Oui
84135;Oui
84136;Oui
84137;Oui
84138;Oui
84139;Oui
84142;Oui
84143;Oui
84144;Oui
84145;Oui
84147;Oui
84148;Oui
84149;Oui
84150;Oui
85020;Oui
86001;Oui
86129;Oui
86136;Oui
89024;Oui
89143;Oui
89404;Oui
89466;Oui
90009;Oui
90012;Oui
90028;Oui
90033;Oui
90049;Oui
90058;Oui
90062;Oui
90065;Oui
90077;Oui
90094;Oui
93008;Oui
95042;Oui
95303;Oui
95611;Oui
04070;Oui
07186;Oui
14118;Oui
21231;Oui
33063;Oui
34172;Oui
39300;Oui
45234;Oui
57463;Oui
