countyNumber;countyName;Ambroisies;AmbroisiesRandomSample
01;Ain;0;1
02;Aisne;0;2
03;Allier;0;1
04;Alpes-de-Haute-Provence;0;3
05;Hautes-Alpes;0;2
06;Alpes-Maritimes;0;1
07;Ardèche;0;1
08;Ardennes;0;2
09;Ariège;0;3
10;Aube;0;1
11;Aude;0;1
12;Aveyron;0;3
13;Bouches-du-Rhône;0;3
14;Calvados;0;2
15;Cantal;0;0
16;Charente;0;2
17;Charente-Maritime;0;3
18;Cher;0;0
19;Corrèze;0;1
20;Corse;0;2
21;Côte-d'Or;0;2
22;Côtes-d'Armor;0;2
23;Creuse;0;1
24;Dordogne;0;2
25;Doubs;0;0
26;Drôme;0;2
27;Eure;0;1
28;Eure-et-Loir;0;2
29;Finistère;0;3
30;Gard;0;1
31;Haute-Garonne;0;0
32;Gers;0;0
33;Gironde;0;3
34;Hérault;0;3
35;Ille-et-Vilaine;0;2
36;Indre;0;0
37;Indre-et-Loire;0;2
38;Isère;0;1
39;Jura;0;2
40;Landes;0;2
41;Loir-et-Cher;0;2
42;Loire;0;1
43;Haute-Loire;0;1
44;Loire-Atlantique;0;0
45;Loiret;0;1
46;Lot;0;1
47;Lot-et-Garonne;0;3
48;Lozère;0;0
49;Maine-et-Loire;0;2
50;Manche;0;2
51;Marne;0;2
52;Haute-Marne;0;1
53;Mayenne;0;2
54;Meurthe-et-Moselle;0;2
55;Meuse;0;1
56;Morbihan;0;2
57;Moselle;0;0
58;Nièvre;0;0
59;Nord;0;1
60;Oise;0;2
61;Orne;0;3
62;Pas-de-Calais;0;0
63;Puy-de-Dôme;0;2
64;Pyrénées-Atlantiques;0;2
65;Hautes-Pyrénées;0;2
66;Pyrénées-Orientales;0;3
67;Bas-Rhin;0;0
68;Haut-Rhin;0;3
69;Rhône;0;3
70;Haute-Saône;0;1
71;Saône-et-Loire;0;3
72;Sarthe;0;0
73;Savoie;0;3
74;Haute-Savoie;0;2
75;Paris;0;3
76;Seine-Maritime;0;3
77;Seine-et-Marne;0;1
78;Yvelines;0;0
79;Deux-Sèvres;0;0
80;Somme;0;2
81;Tarn;0;2
82;Tarn-et-Garonne;0;0
83;Var;0;2
84;Vaucluse;0;1
85;Vendée;0;3
86;Vienne;0;1
87;Haute-Vienne;0;0
88;Vosges;0;3
89;Yonne;0;2
90;Territoire de Belfort;0;0
91;Essonne;0;2
92;Hauts-de-Seine;0;2
93;Seine-Saint-Denis;0;2
94;Val-de-Marne;0;3
95;Val-d'Oise;0;2
99;Andorra;0;3
